{
  "log": {
    "version": "1.2",
    "creator": {
      "name": "GitLab API Fuzzing Recorder",
      "version": "0.1",
      "comment": "https://docs.gitlab.com/ee/user/application_security/api_fuzzing/"
    },
    "entries": [
      {
        "startedDateTime": "2023-09-28T07:26:15.616424+00:00",
        "time": 540,
        "request": {
          "method": "GET",
          "url": "https://reqres.in/api/users?page=2",
          "httpVersion": "HTTP/1.1",
          "cookies": [],
          "headers": [
            {
              "name": "Content-Type",
              "value": "application/json"
            },
            {
              "name": "Accept",
              "value": "*/*"
            },
            {
              "name": "Host",
              "value": "reqres.in"
            },
            {
              "name": "Connection",
              "value": "Keep-Alive"
            },
            {
              "name": "User-Agent",
              "value": "Apache-HttpClient/4.5.13 (Java/17.0.7)"
            },
            {
              "name": "Accept-Encoding",
              "value": "gzip,deflate"
            }
          ],
          "queryString": [
            {
              "name": "page",
              "value": "2"
            }
          ],
          "headersSize": 224,
          "bodySize": 0
        },
        "response": {
          "status": 200,
          "statusText": "OK",
          "httpVersion": "HTTP/1.1",
          "cookies": [],
          "headers": [
            {
              "name": "Date",
              "value": "Thu, 28 Sep 2023 07:26:15 GMT"
            },
            {
              "name": "Content-Type",
              "value": "application/json; charset=utf-8"
            },
            {
              "name": "Transfer-Encoding",
              "value": "chunked"
            },
            {
              "name": "Connection",
              "value": "keep-alive"
            },
            {
              "name": "X-Powered-By",
              "value": "Express"
            },
            {
              "name": "Access-Control-Allow-Origin",
              "value": "*"
            },
            {
              "name": "Etag",
              "value": "W/\"406-ut0vzoCuidvyMf8arZpMpJ6ZRDw\""
            },
            {
              "name": "Via",
              "value": "1.1 vegur"
            },
            {
              "name": "Cache-Control",
              "value": "max-age=14400"
            },
            {
              "name": "CF-Cache-Status",
              "value": "HIT"
            },
            {
              "name": "Age",
              "value": "5387"
            },
            {
              "name": "Report-To",
              "value": "{\"endpoints\":[{\"url\":\"https:\\/\\/a.nel.cloudflare.com\\/report\\/v3?s=sildhP3qfTR0RCE8LiKUxQF%2F4RfVpczO2M4EDvGkg6h0CBRIq5h%2F0wp6GfhhZafy%2FBu4K09eui%2F8il1NaXTe9qGkjff7fhqWNcWV7Rj5xwoHUsn%2F9BOSq%2B5kHQ%3D%3D\"}],\"group\":\"cf-nel\",\"max_age\":604800}"
            },
            {
              "name": "NEL",
              "value": "{\"success_fraction\":0,\"report_to\":\"cf-nel\",\"max_age\":604800}"
            },
            {
              "name": "Vary",
              "value": "Accept-Encoding"
            },
            {
              "name": "Server",
              "value": "cloudflare"
            },
            {
              "name": "CF-RAY",
              "value": "80da41d55f948f9b-KNU"
            },
            {
              "name": "Content-Encoding",
              "value": "gzip"
            }
          ],
          "content": {
            "size": 379,
            "compression": 651,
            "mimeType": "application/json; charset=utf-8",
            "text": "{\"page\":2,\"per_page\":6,\"total\":12,\"total_pages\":2,\"data\":[{\"id\":7,\"email\":\"michael.lawson@reqres.in\",\"first_name\":\"Michael\",\"last_name\":\"Lawson\",\"avatar\":\"https://reqres.in/img/faces/7-image.jpg\"},{\"id\":8,\"email\":\"lindsay.ferguson@reqres.in\",\"first_name\":\"Lindsay\",\"last_name\":\"Ferguson\",\"avatar\":\"https://reqres.in/img/faces/8-image.jpg\"},{\"id\":9,\"email\":\"tobias.funke@reqres.in\",\"first_name\":\"Tobias\",\"last_name\":\"Funke\",\"avatar\":\"https://reqres.in/img/faces/9-image.jpg\"},{\"id\":10,\"email\":\"byron.fields@reqres.in\",\"first_name\":\"Byron\",\"last_name\":\"Fields\",\"avatar\":\"https://reqres.in/img/faces/10-image.jpg\"},{\"id\":11,\"email\":\"george.edwards@reqres.in\",\"first_name\":\"George\",\"last_name\":\"Edwards\",\"avatar\":\"https://reqres.in/img/faces/11-image.jpg\"},{\"id\":12,\"email\":\"rachel.howell@reqres.in\",\"first_name\":\"Rachel\",\"last_name\":\"Howell\",\"avatar\":\"https://reqres.in/img/faces/12-image.jpg\"}],\"support\":{\"url\":\"https://reqres.in/#support-heading\",\"text\":\"To keep ReqRes free, contributions towards server costs are appreciated!\"}}"
          },
          "redirectURL": "",
          "headersSize": 882,
          "bodySize": 379
        },
        "cache": {},
        "timings": {
          "send": 2,
          "receive": 7,
          "wait": 302,
          "connect": 84,
          "ssl": 145
        },
        "serverIPAddress": "172.67.73.173"
      },
      {
        "startedDateTime": "2023-09-28T07:26:16.732687+00:00",
        "time": 904,
        "request": {
          "method": "POST",
          "url": "https://reqres.in/api/users",
          "httpVersion": "HTTP/1.1",
          "cookies": [],
          "headers": [
            {
              "name": "Accept",
              "value": "*/*"
            },
            {
              "name": "Content-Type",
              "value": "application/json; charset=UTF-8"
            },
            {
              "name": "Content-Length",
              "value": "35"
            },
            {
              "name": "Host",
              "value": "reqres.in"
            },
            {
              "name": "Connection",
              "value": "Keep-Alive"
            },
            {
              "name": "User-Agent",
              "value": "Apache-HttpClient/4.5.13 (Java/17.0.7)"
            },
            {
              "name": "Accept-Encoding",
              "value": "gzip,deflate"
            }
          ],
          "queryString": [],
          "headersSize": 267,
          "bodySize": 35,
          "postData": {
            "mimeType": "application/json; charset=UTF-8",
            "text": "{\"name\":\"Morpheus\",\"job\":\"leader\"}\n",
            "params": []
          }
        },
        "response": {
          "status": 201,
          "statusText": "Created",
          "httpVersion": "HTTP/1.1",
          "cookies": [],
          "headers": [
            {
              "name": "Date",
              "value": "Thu, 28 Sep 2023 07:26:17 GMT"
            },
            {
              "name": "Content-Type",
              "value": "application/json; charset=utf-8"
            },
            {
              "name": "Content-Length",
              "value": "84"
            },
            {
              "name": "Connection",
              "value": "keep-alive"
            },
            {
              "name": "X-Powered-By",
              "value": "Express"
            },
            {
              "name": "Access-Control-Allow-Origin",
              "value": "*"
            },
            {
              "name": "Etag",
              "value": "W/\"54-kOvj32kTTfrW5cSvpsq/TiD3MU0\""
            },
            {
              "name": "Via",
              "value": "1.1 vegur"
            },
            {
              "name": "CF-Cache-Status",
              "value": "DYNAMIC"
            },
            {
              "name": "Report-To",
              "value": "{\"endpoints\":[{\"url\":\"https:\\/\\/a.nel.cloudflare.com\\/report\\/v3?s=8RyzNo44QrFtye0MCTV2CRFryS3VejUX7IZH7d1k0w3T%2BIPzPhYLfDML%2FVBu5SukF2VqZiduaahZbzja1NwYCoKrtafvl7Pmwem5Tn9KIUA2b55gHyoQ%2BwIXWQ%3D%3D\"}],\"group\":\"cf-nel\",\"max_age\":604800}"
            },
            {
              "name": "NEL",
              "value": "{\"success_fraction\":0,\"report_to\":\"cf-nel\",\"max_age\":604800}"
            },
            {
              "name": "Server",
              "value": "cloudflare"
            },
            {
              "name": "CF-RAY",
              "value": "80da41dc481d8fb6-KNU"
            }
          ],
          "content": {
            "size": 84,
            "compression": 0,
            "mimeType": "application/json; charset=utf-8",
            "text": "{\"name\":\"Morpheus\",\"job\":\"leader\",\"id\":\"967\",\"createdAt\":\"2023-09-28T07:26:17.265Z\"}"
          },
          "redirectURL": "",
          "headersSize": 751,
          "bodySize": 84
        },
        "cache": {},
        "timings": {
          "send": 5,
          "receive": 7,
          "wait": 681,
          "connect": 72,
          "ssl": 139
        },
        "serverIPAddress": "172.67.73.173"
      },
      {
        "startedDateTime": "2023-09-28T07:26:17.541034+00:00",
        "time": 910,
        "request": {
          "method": "POST",
          "url": "https://reqres.in/api/users",
          "httpVersion": "HTTP/1.1",
          "cookies": [],
          "headers": [
            {
              "name": "Accept",
              "value": "*/*"
            },
            {
              "name": "Content-Type",
              "value": "application/json; charset=UTF-8"
            },
            {
              "name": "Content-Length",
              "value": "42"
            },
            {
              "name": "Host",
              "value": "reqres.in"
            },
            {
              "name": "Connection",
              "value": "Keep-Alive"
            },
            {
              "name": "User-Agent",
              "value": "Apache-HttpClient/4.5.13 (Java/17.0.7)"
            },
            {
              "name": "Accept-Encoding",
              "value": "gzip,deflate"
            }
          ],
          "queryString": [],
          "headersSize": 267,
          "bodySize": 42,
          "postData": {
            "mimeType": "application/json; charset=UTF-8",
            "text": "{\"name\":\"Morpheus\",\"job\":\"zion resident\"}\n",
            "params": []
          }
        },
        "response": {
          "status": 201,
          "statusText": "Created",
          "httpVersion": "HTTP/1.1",
          "cookies": [],
          "headers": [
            {
              "name": "Date",
              "value": "Thu, 28 Sep 2023 07:26:18 GMT"
            },
            {
              "name": "Content-Type",
              "value": "application/json; charset=utf-8"
            },
            {
              "name": "Content-Length",
              "value": "90"
            },
            {
              "name": "Connection",
              "value": "keep-alive"
            },
            {
              "name": "Report-To",
              "value": "{\"group\":\"heroku-nel\",\"max_age\":3600,\"endpoints\":[{\"url\":\"https://nel.heroku.com/reports?ts=1695885978&s=2rHhBPiwq1lQW8TVlxsAbV%2FGssFyUJP7XfcohYm21o0%3D\"}]}"
            },
            {
              "name": "Reporting-Endpoints",
              "value": "heroku-nel=https://nel.heroku.com/reports?ts=1695885978&s=2rHhBPiwq1lQW8TVlxsAbV%2FGssFyUJP7XfcohYm21o0%3D"
            },
            {
              "name": "Nel",
              "value": "{\"report_to\":\"heroku-nel\",\"max_age\":3600,\"success_fraction\":0.01,\"failure_fraction\":0.1,\"response_headers\":[\"Via\"]}"
            },
            {
              "name": "X-Powered-By",
              "value": "Express"
            },
            {
              "name": "Access-Control-Allow-Origin",
              "value": "*"
            },
            {
              "name": "Etag",
              "value": "W/\"5a-1VaNXkEBGwUN5A6N79oq5vIeK+o\""
            },
            {
              "name": "Via",
              "value": "1.1 vegur"
            },
            {
              "name": "CF-Cache-Status",
              "value": "DYNAMIC"
            },
            {
              "name": "Server",
              "value": "cloudflare"
            },
            {
              "name": "CF-RAY",
              "value": "80da41e14aab8fb3-KNU"
            }
          ],
          "content": {
            "size": 90,
            "compression": 0,
            "mimeType": "application/json; charset=utf-8",
            "text": "{\"name\":\"Morpheus\",\"job\":\"zion resident\",\"id\":\"65\",\"createdAt\":\"2023-09-28T07:26:18.059Z\"}"
          },
          "redirectURL": "",
          "headersSize": 857,
          "bodySize": 90
        },
        "cache": {},
        "timings": {
          "send": 4,
          "receive": 6,
          "wait": 692,
          "connect": 66,
          "ssl": 142
        },
        "serverIPAddress": "172.67.73.173"
      }
    ]
  }
}